{
  "datasource" : [
    {
      "key" : "0020-mitre-2019",
      "data" : "cve",
      "source" : "mitre",
      "name" : "MITRE",
      "description" : "MITRE 2019",
      "cve_filter" : "CVE-2019",
      "init" : "bin/mitre/srtool_mitre.py --initialize --source='Mitre 2019' --file=data/allitems-cvrf-year-2019.xml --url-file=allitems-cvrf-year-2019.xml",
      "update" : "bin/mitre/srtool_mitre.py --update --source='Mitre 2019' --file=data/allitems-cvrf-year-2019.xml --url-file=allitems-cvrf-year-2019.xml",
      "lookup" : "bin/mitre/srtool_mitre.py --file=data/allitems-cvrf-year-2019.xml %command%",
      "update_frequency" : "3",
      "_comment_" : "Update on Saturdays at 2:00 am",
      "update_time" : "{\"weekday\":\"5\",\"hour\":\"2\"}"
    }
  ]
}
