{
  "datasource" : [
    {
      "key" : "0020-mitre-2010",
      "data" : "cve",
      "source" : "mitre",
      "name" : "MITRE",
      "description" : "MITRE 2010",
      "cve_filter" : "CVE-2010",
      "init" : "bin/mitre/srtool_mitre.py --download-only --source='Mitre 2010' --file=data/allitems-cvrf-year-2010.xml --url-file=allitems-cvrf-year-2010.xml",
      "update" : "bin/mitre/srtool_mitre.py --download-only --source='Mitre 2010' --file=data/allitems-cvrf-year-2010.xml --url-file=allitems-cvrf-year-2010.xml",
      "lookup" : "bin/mitre/srtool_mitre.py --file=data/allitems-cvrf-year-2010.xml %command%",
      "update_frequency" : "3",
      "_comment_" : "Update on Saturdays at 2:00 am",
      "update_time" : "{\"weekday\":\"5\",\"hour\":\"2\"}"
    }
  ]
}
