{
  "datasource" : [
    {
      "key" : "0010-nist-2020",
      "data" : "cve",
      "source" : "nist",
      "name" : "NIST",
      "description" : "NIST 2020",
      "cve_filter" : "CVE-2020",
      "init" : "bin/nist/srtool_nist.py --init_nist --source='NIST 2020' --file=data/nvdcve-1.1-2020.json --url-file=nvdcve-1.1-2020.json.gz --url-meta=nvdcve-1.1-2020.meta",
      "update" : "bin/nist/srtool_nist.py --update_nist --source='NIST 2020' --file=data/nvdcve-1.1-2020.json --url-file=nvdcve-1.1-2020.json.gz --url-meta=nvdcve-1.1-2020.meta",
      "lookup" : "bin/nist/srtool_nist.py --file=data/nvdcve-1.1-2020.json %command%",
      "update_frequency" : "3",
      "_comment_" : "Update on Saturdays at 2:00 am",
      "update_time" : "{\"weekday\":\"5\",\"hour\":\"2\"}"
    }
  ]
}
