{
  "_comment_" : [
    {
      "_comment_" : "NOTE: _comment_ items are ignored",
      "anything" : "so you can put any internal documentation here"
    }
  ],
  "Product_Items" : [
    {
      "_comment_" : "NOTE: _comment_ elements are ignored",
      "order" : "1",
      "key" : "lt",
      "name" : "Looney Tunes",
      "version" : "1950",
      "profile" : "",
      "cpe" : "cpe:2.5:o:looneytunes:linux:2.5:*:*:*:*:*:*:*",
      "defect_tags" : "{\"key\":\"LOONEY\"}",
      "product_tags" : "{\"key\":\"LOONEY\"}"
    },
    {
      "order" : "2",
      "key" : "mm",
      "name" : "Merrie Melodies",
      "version" : "1940",
      "profile" : "",
      "cpe" : "cpe:2.5:o:merriemelodies:linux:2.5:*:*:*:*:*:*:*",
      "defect_tags" : "{\"key\":\"MERRIE\"}",
      "product_tags" : "{\"key\":\"MERRIE\"}"
    }
   ]
}
